First Name,Last Name,E-mail,Company,Phone,Membership Starting Date(yyyy-mm-dd),Mobile Phone,Street Address,City,State,Country,Zip 
NewPerson2,TestingToday,ericgu090415@mcninteractive.com,MCN,84386048273,3/14/13,222333222,1 test,cityname,British Columnbia,Canada,37211
NewPerson3,TestingToday,ericgu090416@mcninteractive.com,MCN,84386048273,3/14/13,222333222,1 test,cityname,1,840,37211
