First Name,Last Name,E-mail,Company,Phone,Membership Starting Date(yyyy-mm-dd),Mobile Phone,Street Address,City,State,Country,Zip 
NewPerson2,TestingToday,ericgu090307@mcninteractive.com,MCN,84386048273,3/14/13,222333222,1 test,cityname,bc,ca,37211
NewPerson3,TestingToday,ericgu090308@mcninteractive.com,MCN,84386048273,3/14/13,222333222,1 test,cityname,mi,us,37211
